{
    "openapi": "3.0.0",
    "info": {
        "title": "Loop api",
        "description": "",
        "contact": {
            "email": "lycifer3.mn@gmail.com"
        },
        "version": "1.0.0"
    },
    "servers": [
        {
            "url": "http://my-default-host.com",
            "description": "L5 Swagger OpenApi dynamic host server"
        }
    ],
    "paths": {
        "/api/oauth/token": {
            "get": {
                "tags": [
                    "Users"
                ],
                "summary": "Get oauth token",
                "description": "Returns oauth token",
                "responses": {
                    "200": {
                        "description": "successful operation"
                    },
                    "400": {
                        "description": "Bad request"
                    }
                },
                "security": [
                    {
                        "api_key_security_example": []
                    }
                ]
            }
        }
    },
    "components": {
        "securitySchemes": {
            "Password Based": {
                "type": "oauth2",
                "description": "Use a global client_id / client_secret and your email / password combo to obtain a token",
                "in": "header",
                "flows": {
                    "password": {
                        "authorizationUrl": "/oauth/token",
                        "tokenUrl": "/oauth/token",
                        "scopes": []
                    }
                },
                "scheme": "http"
            }
        }
    }
}